<svg width="60" height="60" viewBox="0 0 60 60" fill="none" xmlns="http://www.w3.org/2000/svg">
<path d="M60 7.71398L51.0004 8.99941L52.2861 0L45.4406 6.84527C40.781 3.67324 35.1529 1.81816 29.0909 1.81816C13.0243 1.81816 0 14.8425 0 30.9091C0 46.9758 13.0243 60 29.0909 60C45.1573 60 58.1817 46.9757 58.1817 30.9091C58.1817 24.8471 56.3266 19.2188 53.1546 14.5591L60 7.71398ZM45.8044 47.6225C41.34 52.0869 35.4046 54.5454 29.091 54.5454C22.7774 54.5454 16.8417 52.0868 12.3776 47.6225C7.9132 43.1584 5.45461 37.2227 5.45461 30.909C5.45461 24.5953 7.9132 18.6598 12.3776 14.1956C16.8417 9.73125 22.7774 7.27266 29.091 7.27266C34.4863 7.27266 39.6045 9.06938 43.7655 12.3776L37.2655 18.8776C34.9357 17.2916 32.1219 16.3636 29.091 16.3636C21.0577 16.3636 14.5455 22.8758 14.5455 30.909C14.5455 38.9422 21.0578 45.4545 29.091 45.4545C37.1242 45.4545 43.6364 38.9422 43.6364 30.909C43.6364 27.8781 42.7084 25.0643 41.1224 22.7345L47.6224 16.2345C50.9306 20.3953 52.7273 25.5137 52.7273 30.909C52.7272 37.2227 50.2688 43.1582 45.8044 47.6225ZM27.8897 32.1103C28.4222 32.6428 29.1203 32.9091 29.8182 32.9091C30.5162 32.9091 31.2143 32.6429 31.7466 32.1102L37.1489 26.7079C37.807 27.9655 38.1818 29.394 38.1818 30.9091C38.1818 35.9218 34.1037 40.0001 29.0909 40.0001C24.078 40.0001 19.9999 35.922 19.9999 30.9091C19.9999 25.8963 24.078 21.8182 29.0909 21.8182C30.606 21.8182 32.0344 22.1927 33.2919 22.8511L27.8896 28.2534C26.8246 29.3186 26.8246 31.0453 27.8897 32.1103Z" fill="#FDFDFD"/>
</svg>
